0.003927696459319672,-8.773673865539936e-12,1.5971540598290732e-12
0.006532787020004994,1.5198809964667995e-12,-2.765927544191088e-13
0.007507796325453631,-6.0788262526083825e-12,1.1065756626402251e-12
0.001697314088982915,6.588362671383423e-13,-1.19883808198472e-13
0.007820403326312782,-6.333676782540634e-12,1.1529789536447894e-12
0.002086934692528265,1.3338107614625418e-12,-2.427333226222797e-13
0.006687768390140108,-8.063228615029623e-12,1.4678712171794255e-12
0.007975247062249485,-3.944767473768451e-12,7.181779247066193e-13
0.001505875805717064,-1.632433002355358e-12,2.9719823423184426e-13
0.003253368228179743,1.0550643840016582e-12,-1.9198801704922974e-13
0.007498178400406639,-7.956762751956235e-12,1.4484077550033179e-12
0.007194468269039734,-3.2394108681093835e-12,5.897723877270163e-13
0.0035193209254957484,-4.4166293602745465e-12,8.040172499651136e-13
0.004990118690408258,-4.637025983738788e-13,8.444162201890305e-14
0.006250790199437068,-5.303742147411018e-12,9.654583547932631e-13
0.0036141104952262157,-6.285439824671057e-13,1.1444840118977894e-13
0.0062784279461448305,-8.445191020184004e-13,1.5375215608366272e-13
0.0038907555558330294,-8.998706610500416e-12,1.6381090820548058e-12
0.003600756510629174,1.996930271674515e-12,-3.6342927372416633e-13
0.0025265955841319494,-8.695656761814832e-12,1.5829416238318136e-12
0.008416551760390403,-4.334463282324203e-12,7.890359475429446e-13
0.006240154459621075,2.1850978409464715e-12,-3.9774868242245076e-13
0.0044260299854857995,7.480133169399079e-12,-1.3616135556966304e-12
0.005126415806802601,-5.453248069428215e-12,9.927298800535086e-13
0.007078884420615525,5.6425940400799485e-12,-1.0271148461231103e-12
0.006370704274176323,-7.204725515925773e-13,1.3118219317141037e-13
0.006610726681327923,1.0644363375099691e-12,-1.936776806788942e-13
0.005776157076223969,-2.6989056587140725e-12,4.913769205589123e-13
0.0034334670767921186,-5.218585269724389e-12,9.499505616181862e-13
0.0054012054424817015,2.557084045939555e-12,-4.653931371059548e-13
0.00260770961157961,9.476937044612216e-13,-1.7247699244529095e-13
0.004402188229457108,-1.0501844788285308e-11,1.9117550321587452e-12
0.004601724623591012,1.7893743050388742e-12,-3.256295314872589e-13
0.0050241470914407045,2.2796717236331675e-12,-4.148972524464092e-13
0.003830765039633068,-5.523521222888076e-12,1.0055093445622385e-12
0.004036617692676651,-5.6052884441616976e-12,1.0204096182099267e-12
0.005431801569709836,5.072416299885214e-13,-9.227972329165132e-14
0.0032758203664735902,-7.0039270784959516e-12,1.2749713116793844e-12
0.00289532271509689,-9.560107772476628e-12,1.7402980946132085e-12
0.006594756953490963,-5.740147960215187e-13,1.0450314112249213e-13
0.0046940608827515514,-7.1059769500469104e-12,1.2935564356057337e-12
0.0050260132617771505,-5.519694192568749e-12,1.0048006342357602e-12
0.005981423000256929,1.4415281298504275e-12,-2.623619792968841e-13
0.007325223086676861,-4.9455599447308116e-12,9.003309348941037e-13
0.003010627576247095,-5.593209873398524e-12,1.0182011648927347e-12
0.005851555389721906,3.2388025664568574e-12,-5.895668594046197e-13
0.005729630072693534,-3.76379945664608e-12,6.851392420704431e-13
0.0064657129000515855,-7.616899481789558e-13,1.38680592695227e-13
0.002292932006301775,-1.3234413373052788e-11,2.409172529055675e-12
0.0074828061469889426,-5.236319377879816e-12,9.532403666588342e-13
0.0029703854178459027,4.636126077173089e-12,-8.43881534584516e-13
0.005923249057450123,-9.987299117857366e-12,1.818105870666004e-12
0.004857557633563893,2.2535043799221868e-14,-4.059098665543091e-15
0.004514874039712908,2.8110665830118175e-12,-5.116537304145739e-13
0.007769189406123919,-5.062293919517782e-12,9.215095931686634e-13
0.0035972676133501132,-7.386571371183824e-12,1.3446730629371019e-12
0.006659222356735806,-5.070415179978589e-12,9.230435937180715e-13
0.0040341470213894936,3.497077783425905e-13,-6.358248006962678e-14
0.006623186432291344,8.622746903409954e-13,-1.5689425120997804e-13
0.005094918419409387,1.534269512012817e-12,-2.791976475457773e-13
0.0051111282829857385,-8.19981420428072e-12,1.492692950461592e-12
0.005695852552809106,-9.298586200369503e-12,1.6926609002960863e-12
0.005075279589683103,-7.134486619317959e-12,1.298769698529059e-12
0.006646596454225086,-7.544019858353873e-12,1.3733274062003771e-12
0.00786600427120658,-3.88347980408603e-12,7.069501644256092e-13
0.003229371066012427,-1.10214754998676e-11,2.0063412362670994e-12
0.0026043409877816513,-1.7694536739556768e-12,3.2214348392279476e-13
0.005748660682591834,-8.034903009908751e-12,1.4626830939220687e-12
0.005428047738219746,-1.0561571347661864e-12,1.9229884231453837e-13
0.006188293468069591,-8.006956938433132e-12,1.457577424821725e-12
0.0035801139191969566,-2.3338155170231384e-12,4.248609618045277e-13
0.0028595095656745555,3.638692732282797e-12,-6.623569349038425e-13
0.006281948668427057,9.576948677070037e-12,-1.743255731064451e-12
0.0040635910073045295,6.0289518946800145e-12,-1.097465857164649e-12
0.004941110270181863,-4.154624003945469e-12,7.563750480876773e-13
0.006706364606625836,6.419932531855925e-12,-1.1685876106126548e-12
0.007022470838949782,-5.755965856606253e-13,1.048596321290174e-13
0.0020216701194364748,-1.3337469917120935e-11,2.427888067976095e-12
0.0020142546238113325,2.5951757115306025e-13,-4.7238040022862567e-14
0.00858573918956701,-3.880270800040885e-12,7.06427631714204e-13
0.0063295852428588775,-6.7062732333615626e-12,1.2207730323967167e-12
0.004941732543072917,3.7564672148248146e-12,-6.83774128129776e-13
0.004413693815657757,7.388301486991819e-13,-1.3445204592954593e-13
0.004797683671967933,-9.313228713454278e-13,1.6956634137392474e-13
0.006184628085057357,-3.942027193633059e-12,7.175795730934756e-13
0.001412563890976461,1.543590737818969e-12,-2.809052062727767e-13
0.0022998072993190436,4.932925168942976e-12,-8.978951934538999e-13
0.002384717317445788,1.0534938177126416e-12,-1.9174990159618962e-13
0.007799545397612662,4.260397674099525e-12,-7.754485212460061e-13
0.006139808538070359,6.70896303192531e-12,-1.2212293374411394e-12
0.005943838744284799,8.485647553574193e-13,-1.5443804081705878e-13
0.002279415589034707,-2.1892160341390735e-12,3.985567932050937e-13
0.004370814423199285,-1.0457818956110617e-11,1.903673908574391e-12
0.0037118373658825954,4.1936909863641815e-12,-7.632842432075385e-13
0.005910528091152787,9.13033567419656e-12,-1.6620064132290699e-12
0.0024707831957628133,5.404319523523024e-13,-9.831474734203913e-14
0.003046553972619095,-9.611158949320243e-12,1.7496337015208174e-12
0.006272521282176109,-1.0778092861189807e-11,1.961996828721412e-12
0.0028279307563348647,2.4834607383023636e-12,-4.519882301467296e-13
0.004770059978323088,-1.0419269003072875e-11,1.896712061707227e-12
